{"count":357,"next":"https://ll.thespacedevs.com/2.0.0/launch/upcoming/?limit=10&offset=10","previous":null,"results":[{"id":"ba739b7f-9bdd-487c-9742-d76182af49f8","url":"https://ll.thespacedevs.com/2.0.0/launch/ba739b7f-9bdd-487c-9742-d76182af49f8/","launch_library_id":null,"slug":"falcon-9-block-5-eutelsat-36d","name":"Falcon 9 Block 5 | Eutelsat 36D","status":{"id":3,"name":"Success"},"net":"2024-03-30T21:52:00Z","window_end":"2024-03-31T01:50:00Z","window_start":"2024-03-30T21:52:00Z","inhold":false,"tbdtime":false,"tbddate":false,"probability":96,"holdreason":"","failreason":"","hashtag":null,"launch_service_provider":{"id":121,"url":"https://ll.thespacedevs.com/2.0.0/agencies/121/","name":"SpaceX","type":"Commercial"},"rocket":{"id":8205,"configuration":{"id":164,"launch_library_id":188,"url":"https://ll.thespacedevs.com/2.0.0/config/launcher/164/","name":"Falcon 9","family":"Falcon","full_name":"Falcon 9 Block 5","variant":"Block 5"}},"mission":{"id":6776,"launch_library_id":null,"name":"Eutelsat 36D","description":"Eutelsat 36D is a planned new generation multi-mission geostationary telecommunications satellite for Eutelsat, replacing and enhance capacity at 36° East, a key orbital slot for Eutelsat for TV broadcasting (DTH) and government services over Africa, Russia, and Europe. \r\n\r\nIt is based on the Airbus Eurostar-Neo platform, with electric power generation capability of 18 kW, EOR (Electric Orbit Raising) capability,  and a launch mass of 5 tons. \r\n\r\nWith 70 Ku-band transponders over five downlink beams and a steerable antenna, Eutelsat 36D provides flexibility and performance optimisation to deliver service in Africa, Russia and Europe for an operational lifetime of more than 15 years.","launch_designator":null,"type":"Communications","orbit":{"id":2,"name":"Geostationary Transfer Orbit","abbrev":"GTO"}},"pad":{"id":87,"url":"https://ll.thespacedevs.com/2.0.0/pad/87/","agency_id":121,"name":"Launch Complex 39A","info_url":null,"wiki_url":"https://en.wikipedia.org/wiki/Kennedy_Space_Center_Launch_Complex_39#Launch_Pad_39A","map_url":"https://www.google.com/maps?q=28.60822681,-80.60428186","latitude":"28.60822681","longitude":"-80.60428186","location":{"id":27,"url":"https://ll.thespacedevs.com/2.0.0/location/27/","name":"Kennedy Space Center, FL, USA","country_code":"USA","map_image":"https://spacelaunchnow-prod-east.nyc3.digitaloceanspaces.com/media/launch_images/location_27_20200803142447.jpg","total_launch_count":233,"total_landing_count":0},"map_image":"https://spacelaunchnow-prod-east.nyc3.digitaloceanspaces.com/media/launch_images/pad_87_20200803143537.jpg","total_launch_count":175},"webcast_live":false,"image":"https://spacelaunchnow-prod-east.nyc3.digitaloceanspaces.com/media/images/f9_on_lc-39a_2_image_20240330210508.jpg","infographic":null,"program":[]},{"id":"3f61f099-5176-49f2-8e77-41c02ce80e5a","url":"https://ll.thespacedevs.com/2.0.0/launch/3f61f099-5176-49f2-8e77-41c02ce80e5a/","launch_library_id":null,"slug":"falcon-9-block-5-starlink-group-6-45","name":"Falcon 9 Block 5 | Starlink Group 6-45","status":{"id":3,"name":"Success"},"net":"2024-03-31T01:30:00Z","window_end":"2024-03-31T02:00:00Z","window_start":"2024-03-31T01:02:00Z","inhold":false,"tbdtime":false,"tbddate":false,"probability":96,"holdreason":"","failreason":"","hashtag":null,"launch_service_provider":{"id":121,"url":"https://ll.thespacedevs.com/2.0.0/agencies/121/","name":"SpaceX","type":"Commercial"},"rocket":{"id":8190,"configuration":{"id":164,"launch_library_id":188,"url":"https://ll.thespacedevs.com/2.0.0/config/launcher/164/","name":"Falcon 9","family":"Falcon","full_name":"Falcon 9 Block 5","variant":"Block 5"}},"mission":{"id":6759,"launch_library_id":null,"name":"Starlink Group 6-45","description":"A batch of satellites for the Starlink mega-constellation - SpaceX's project for space-based Internet communication system.","launch_designator":null,"type":"Communications","orbit":{"id":8,"name":"Low Earth Orbit","abbrev":"LEO"}},"pad":{"id":80,"url":"https://ll.thespacedevs.com/2.0.0/pad/80/","agency_id":121,"name":"Space Launch Complex 40","info_url":null,"wiki_url":"https://en.wikipedia.org/wiki/Cape_Canaveral_Air_Force_Station_Space_Launch_Complex_40","map_url":"https://www.google.com/maps?q=28.56194122,-80.57735736","latitude":"28.56194122","longitude":"-80.57735736","location":{"id":12,"url":"https://ll.thespacedevs.com/2.0.0/location/12/","name":"Cape Canaveral, FL, USA","country_code":"USA","map_image":"https://spacelaunchnow-prod-east.nyc3.digitaloceanspaces.com/media/launch_images/location_12_20200803142519.jpg","total_launch_count":942,"total_landing_count":50},"map_image":"https://spacelaunchnow-prod-east.nyc3.digitaloceanspaces.com/media/launch_images/pad_80_20200803143323.jpg","total_launch_count":232},"webcast_live":false,"image":"https://spacelaunchnow-prod-east.nyc3.digitaloceanspaces.com/media/images/falcon2520925_image_20221009234147.png","infographic":null,"program":[{"id":25,"url":"https://ll.thespacedevs.com/2.0.0/program/25/","name":"Starlink","description":"Starlink is a satellite internet constellation operated by American aerospace company SpaceX","agencies":[{"id":121,"url":"https://ll.thespacedevs.com/2.0.0/agencies/121/","name":"SpaceX","type":"Commercial"}],"image_url":"https://spacelaunchnow-prod-east.nyc3.digitaloceanspaces.com/media/images/starlink_program_20231228154508.jpeg","start_date":"2018-02-22T14:17:00Z","end_date":null,"info_url":"https://starlink.com","wiki_url":"https://en.wikipedia.org/wiki/Starlink"}]},{"id":"eab593aa-ba0b-4191-91b4-406b22ad8d74","url":"https://ll.thespacedevs.com/2.0.0/launch/eab593aa-ba0b-4191-91b4-406b22ad8d74/","launch_library_id":1676,"slug":"soyuz-21b-resurs-p-no4","name":"Soyuz 2.1b | Resurs-P No.4","status":{"id":6,"name":"In Flight"},"net":"2024-03-31T09:36:45Z","window_end":"2024-03-31T09:36:45Z","window_start":"2024-03-31T09:36:45Z","inhold":false,"tbdtime":false,"tbddate":false,"probability":null,"holdreason":"","failreason":"","hashtag":null,"launch_service_provider":{"id":63,"url":"https://ll.thespacedevs.com/2.0.0/agencies/63/","name":"Russian Federal Space Agency (ROSCOSMOS)","type":"Government"},"rocket":{"id":2202,"configuration":{"id":15,"launch_library_id":3,"url":"https://ll.thespacedevs.com/2.0.0/config/launcher/15/","name":"Soyuz 2.1b","family":"Soyuz","full_name":"Soyuz 2.1b","variant":""}},"mission":{"id":6563,"launch_library_id":null,"name":"Resurs-P No.4","description":"Resurs-P is a series of Russian commercial Earth observation satellites capable of acquiring high-resolution imagery (resolution up to 1.0 m).","launch_designator":null,"type":"Earth Science","orbit":{"id":17,"name":"Sun-Synchronous Orbit","abbrev":"SSO"}},"pad":{"id":20,"url":"https://ll.thespacedevs.com/2.0.0/pad/20/","agency_id":null,"name":"31/6","info_url":null,"wiki_url":"https://en.wikipedia.org/wiki/Baikonur_Cosmodrome_Site_31","map_url":"https://www.google.com/maps?q=45.996034,63.564003","latitude":"45.996034","longitude":"63.564003","location":{"id":15,"url":"https://ll.thespacedevs.com/2.0.0/location/15/","name":"Baikonur Cosmodrome, Republic of Kazakhstan","country_code":"KAZ","map_image":"https://spacelaunchnow-prod-east.nyc3.digitaloceanspaces.com/media/launch_images/location_15_20200803142517.jpg","total_launch_count":1548,"total_landing_count":0},"map_image":"https://spacelaunchnow-prod-east.nyc3.digitaloceanspaces.com/media/launch_images/pad_20_20200803143516.jpg","total_launch_count":415},"webcast_live":false,"image":"https://spacelaunchnow-prod-east.nyc3.digitaloceanspaces.com/media/images/soyuz_2.1b_lift_image_20240331153244.jpg","infographic":null,"program":[]},{"id":"8bb37c47-eefc-4a37-80c5-03b760cc99fc","url":"https://ll.thespacedevs.com/2.0.0/launch/8bb37c47-eefc-4a37-80c5-03b760cc99fc/","launch_library_id":null,"slug":"falcon-9-block-5-starlink-group-7-18","name":"Falcon 9 Block 5 | Starlink Group 7-18","status":{"id":2,"name":"TBD"},"net":"2024-04-01T00:00:00Z","window_end":"2024-04-01T00:00:00Z","window_start":"2024-04-01T00:00:00Z","inhold":false,"tbdtime":true,"tbddate":true,"probability":null,"holdreason":"","failreason":"","hashtag":null,"launch_service_provider":{"id":121,"url":"https://ll.thespacedevs.com/2.0.0/agencies/121/","name":"SpaceX","type":"Commercial"},"rocket":{"id":8209,"configuration":{"id":164,"launch_library_id":188,"url":"https://ll.thespacedevs.com/2.0.0/config/launcher/164/","name":"Falcon 9","family":"Falcon","full_name":"Falcon 9 Block 5","variant":"Block 5"}},"mission":{"id":6781,"launch_library_id":null,"name":"Starlink Group 7-18","description":"A batch of 22 satellites for the Starlink mega-constellation - SpaceX's project for space-based Internet communication system.","launch_designator":null,"type":"Communications","orbit":{"id":8,"name":"Low Earth Orbit","abbrev":"LEO"}},"pad":{"id":16,"url":"https://ll.thespacedevs.com/2.0.0/pad/16/","agency_id":null,"name":"Space Launch Complex 4E","info_url":null,"wiki_url":"https://en.wikipedia.org/wiki/Vandenberg_Space_Launch_Complex_4#SLC-4E","map_url":"https://www.google.com/maps?q=34.632,-120.611","latitude":"34.632","longitude":"-120.611","location":{"id":11,"url":"https://ll.thespacedevs.com/2.0.0/location/11/","name":"Vandenberg SFB, CA, USA","country_code":"USA","map_image":"https://spacelaunchnow-prod-east.nyc3.digitaloceanspaces.com/media/launch_images/location_11_20200803142416.jpg","total_launch_count":749,"total_landing_count":16},"map_image":"https://spacelaunchnow-prod-east.nyc3.digitaloceanspaces.com/media/launch_images/pad_16_20200803143532.jpg","total_launch_count":138},"webcast_live":false,"image":"https://spacelaunchnow-prod-east.nyc3.digitaloceanspaces.com/media/images/falcon2520925_image_20221009234147.png","infographic":null,"program":[{"id":25,"url":"https://ll.thespacedevs.com/2.0.0/program/25/","name":"Starlink","description":"Starlink is a satellite internet constellation operated by American aerospace company SpaceX","agencies":[{"id":121,"url":"https://ll.thespacedevs.com/2.0.0/agencies/121/","name":"SpaceX","type":"Commercial"}],"image_url":"https://spacelaunchnow-prod-east.nyc3.digitaloceanspaces.com/media/images/starlink_program_20231228154508.jpeg","start_date":"2018-02-22T14:17:00Z","end_date":null,"info_url":"https://starlink.com","wiki_url":"https://en.wikipedia.org/wiki/Starlink"}]},{"id":"464384ba-7a9a-455a-9d90-1053e9bc453c","url":"https://ll.thespacedevs.com/2.0.0/launch/464384ba-7a9a-455a-9d90-1053e9bc453c/","launch_library_id":null,"slug":"long-march-2c-unknown-payload","name":"Long March 2C | Unknown Payload","status":{"id":1,"name":"Go"},"net":"2024-04-02T22:55:00Z","window_end":"2024-04-02T23:12:00Z","window_start":"2024-04-02T22:47:00Z","inhold":false,"tbdtime":true,"tbddate":false,"probability":null,"holdreason":"","failreason":"","hashtag":null,"launch_service_provider":{"id":88,"url":"https://ll.thespacedevs.com/2.0.0/agencies/88/","name":"China Aerospace Science and Technology Corporation","type":"Government"},"rocket":{"id":8226,"configuration":{"id":61,"launch_library_id":75,"url":"https://ll.thespacedevs.com/2.0.0/config/launcher/61/","name":"Long March 2","family":"Long March 2","full_name":"Long March 2C","variant":"C"}},"mission":{"id":6803,"launch_library_id":null,"name":"Unknown Payload","description":"Details TBD.","launch_designator":null,"type":"Unknown","orbit":{"id":25,"name":"Unknown","abbrev":"N/A"}},"pad":{"id":66,"url":"https://ll.thespacedevs.com/2.0.0/pad/66/","agency_id":17,"name":"Launch Complex 3 (LC-3/LA-1)","info_url":null,"wiki_url":"https://en.wikipedia.org/wiki/Xichang_Satellite_Launch_Center","map_url":"https://www.google.com/maps?q=28.247209,102.02917","latitude":"28.247209","longitude":"102.02917","location":{"id":16,"url":"https://ll.thespacedevs.com/2.0.0/location/16/","name":"Xichang Satellite Launch Center, People's Republic of China","country_code":"CHN","map_image":"https://spacelaunchnow-prod-east.nyc3.digitaloceanspaces.com/media/launch_images/location_16_20200803142513.jpg","total_launch_count":202,"total_landing_count":0},"map_image":"https://spacelaunchnow-prod-east.nyc3.digitaloceanspaces.com/media/launch_images/pad_66_20200803143611.jpg","total_launch_count":89},"webcast_live":false,"image":"https://spacelaunchnow-prod-east.nyc3.digitaloceanspaces.com/media/images/long_march_2_image_20230803100234.jpeg","infographic":null,"program":[]},{"id":"b76b836f-8e88-4bc3-a3bc-36bb8ee4bb3c","url":"https://ll.thespacedevs.com/2.0.0/launch/b76b836f-8e88-4bc3-a3bc-36bb8ee4bb3c/","launch_library_id":null,"slug":"falcon-9-block-5-starlink-group-8-1","name":"Falcon 9 Block 5 | Starlink Group 8-1","status":{"id":2,"name":"TBD"},"net":"2024-04-04T00:00:00Z","window_end":"2024-04-04T00:00:00Z","window_start":"2024-04-04T00:00:00Z","inhold":false,"tbdtime":true,"tbddate":false,"probability":null,"holdreason":"","failreason":"","hashtag":null,"launch_service_provider":{"id":121,"url":"https://ll.thespacedevs.com/2.0.0/agencies/121/","name":"SpaceX","type":"Commercial"},"rocket":{"id":8001,"configuration":{"id":164,"launch_library_id":188,"url":"https://ll.thespacedevs.com/2.0.0/config/launcher/164/","name":"Falcon 9","family":"Falcon","full_name":"Falcon 9 Block 5","variant":"Block 5"}},"mission":{"id":6531,"launch_library_id":null,"name":"Starlink Group 8-1","description":"A batch of satellites for the Starlink mega-constellation - SpaceX's project for space-based Internet communication system.","launch_designator":null,"type":"Communications","orbit":{"id":8,"name":"Low Earth Orbit","abbrev":"LEO"}},"pad":{"id":16,"url":"https://ll.thespacedevs.com/2.0.0/pad/16/","agency_id":null,"name":"Space Launch Complex 4E","info_url":null,"wiki_url":"https://en.wikipedia.org/wiki/Vandenberg_Space_Launch_Complex_4#SLC-4E","map_url":"https://www.google.com/maps?q=34.632,-120.611","latitude":"34.632","longitude":"-120.611","location":{"id":11,"url":"https://ll.thespacedevs.com/2.0.0/location/11/","name":"Vandenberg SFB, CA, USA","country_code":"USA","map_image":"https://spacelaunchnow-prod-east.nyc3.digitaloceanspaces.com/media/launch_images/location_11_20200803142416.jpg","total_launch_count":749,"total_landing_count":16},"map_image":"https://spacelaunchnow-prod-east.nyc3.digitaloceanspaces.com/media/launch_images/pad_16_20200803143532.jpg","total_launch_count":138},"webcast_live":false,"image":"https://spacelaunchnow-prod-east.nyc3.digitaloceanspaces.com/media/images/falcon2520925_image_20221009234147.png","infographic":null,"program":[{"id":25,"url":"https://ll.thespacedevs.com/2.0.0/program/25/","name":"Starlink","description":"Starlink is a satellite internet constellation operated by American aerospace company SpaceX","agencies":[{"id":121,"url":"https://ll.thespacedevs.com/2.0.0/agencies/121/","name":"SpaceX","type":"Commercial"}],"image_url":"https://spacelaunchnow-prod-east.nyc3.digitaloceanspaces.com/media/images/starlink_program_20231228154508.jpeg","start_date":"2018-02-22T14:17:00Z","end_date":null,"info_url":"https://starlink.com","wiki_url":"https://en.wikipedia.org/wiki/Starlink"}]},{"id":"d90ac995-1d5d-48d6-8339-7ab42c567449","url":"https://ll.thespacedevs.com/2.0.0/launch/d90ac995-1d5d-48d6-8339-7ab42c567449/","launch_library_id":null,"slug":"falcon-9-block-5-starlink-group-6-47","name":"Falcon 9 Block 5 | Starlink Group 6-47","status":{"id":2,"name":"TBD"},"net":"2024-04-05T00:00:00Z","window_end":"2024-04-05T00:00:00Z","window_start":"2024-04-05T00:00:00Z","inhold":false,"tbdtime":true,"tbddate":false,"probability":null,"holdreason":"","failreason":"","hashtag":null,"launch_service_provider":{"id":121,"url":"https://ll.thespacedevs.com/2.0.0/agencies/121/","name":"SpaceX","type":"Commercial"},"rocket":{"id":8192,"configuration":{"id":164,"launch_library_id":188,"url":"https://ll.thespacedevs.com/2.0.0/config/launcher/164/","name":"Falcon 9","family":"Falcon","full_name":"Falcon 9 Block 5","variant":"Block 5"}},"mission":{"id":6761,"launch_library_id":null,"name":"Starlink Group 6-47","description":"A batch of satellites for the Starlink mega-constellation - SpaceX's project for space-based Internet communication system.","launch_designator":null,"type":"Communications","orbit":{"id":8,"name":"Low Earth Orbit","abbrev":"LEO"}},"pad":{"id":80,"url":"https://ll.thespacedevs.com/2.0.0/pad/80/","agency_id":121,"name":"Space Launch Complex 40","info_url":null,"wiki_url":"https://en.wikipedia.org/wiki/Cape_Canaveral_Air_Force_Station_Space_Launch_Complex_40","map_url":"https://www.google.com/maps?q=28.56194122,-80.57735736","latitude":"28.56194122","longitude":"-80.57735736","location":{"id":12,"url":"https://ll.thespacedevs.com/2.0.0/location/12/","name":"Cape Canaveral, FL, USA","country_code":"USA","map_image":"https://spacelaunchnow-prod-east.nyc3.digitaloceanspaces.com/media/launch_images/location_12_20200803142519.jpg","total_launch_count":942,"total_landing_count":50},"map_image":"https://spacelaunchnow-prod-east.nyc3.digitaloceanspaces.com/media/launch_images/pad_80_20200803143323.jpg","total_launch_count":232},"webcast_live":false,"image":"https://spacelaunchnow-prod-east.nyc3.digitaloceanspaces.com/media/images/falcon2520925_image_20221009234147.png","infographic":null,"program":[{"id":25,"url":"https://ll.thespacedevs.com/2.0.0/program/25/","name":"Starlink","description":"Starlink is a satellite internet constellation operated by American aerospace company SpaceX","agencies":[{"id":121,"url":"https://ll.thespacedevs.com/2.0.0/agencies/121/","name":"SpaceX","type":"Commercial"}],"image_url":"https://spacelaunchnow-prod-east.nyc3.digitaloceanspaces.com/media/images/starlink_program_20231228154508.jpeg","start_date":"2018-02-22T14:17:00Z","end_date":null,"info_url":"https://starlink.com","wiki_url":"https://en.wikipedia.org/wiki/Starlink"}]},{"id":"c6344720-1266-4697-90ab-943a6f1760a5","url":"https://ll.thespacedevs.com/2.0.0/launch/c6344720-1266-4697-90ab-943a6f1760a5/","launch_library_id":null,"slug":"falcon-9-block-5-bandwagon-1-dedicated-mid-inclina","name":"Falcon 9 Block 5 | Bandwagon 1 (Dedicated Mid-Inclination Rideshare)","status":{"id":2,"name":"TBD"},"net":"2024-04-07T23:17:00Z","window_end":"2024-04-07T23:17:00Z","window_start":"2024-04-07T23:17:00Z","inhold":false,"tbdtime":false,"tbddate":false,"probability":null,"holdreason":"","failreason":"","hashtag":null,"launch_service_provider":{"id":121,"url":"https://ll.thespacedevs.com/2.0.0/agencies/121/","name":"SpaceX","type":"Commercial"},"rocket":{"id":7985,"configuration":{"id":164,"launch_library_id":188,"url":"https://ll.thespacedevs.com/2.0.0/config/launcher/164/","name":"Falcon 9","family":"Falcon","full_name":"Falcon 9 Block 5","variant":"Block 5"}},"mission":{"id":6511,"launch_library_id":null,"name":"Bandwagon 1 (Dedicated Mid-Inclination Rideshare)","description":"Dedicated rideshare flight to a mid-inclination orbit with dozens of small microsatellites and nanosatellites for commercial and government customers. Payloads include Capella Space's Acadia-4 and the South Korean government's 425 Project Flight 2.","launch_designator":null,"type":"Dedicated Rideshare","orbit":{"id":8,"name":"Low Earth Orbit","abbrev":"LEO"}},"pad":{"id":87,"url":"https://ll.thespacedevs.com/2.0.0/pad/87/","agency_id":121,"name":"Launch Complex 39A","info_url":null,"wiki_url":"https://en.wikipedia.org/wiki/Kennedy_Space_Center_Launch_Complex_39#Launch_Pad_39A","map_url":"https://www.google.com/maps?q=28.60822681,-80.60428186","latitude":"28.60822681","longitude":"-80.60428186","location":{"id":27,"url":"https://ll.thespacedevs.com/2.0.0/location/27/","name":"Kennedy Space Center, FL, USA","country_code":"USA","map_image":"https://spacelaunchnow-prod-east.nyc3.digitaloceanspaces.com/media/launch_images/location_27_20200803142447.jpg","total_launch_count":233,"total_landing_count":0},"map_image":"https://spacelaunchnow-prod-east.nyc3.digitaloceanspaces.com/media/launch_images/pad_87_20200803143537.jpg","total_launch_count":175},"webcast_live":false,"image":"https://spacelaunchnow-prod-east.nyc3.digitaloceanspaces.com/media/images/falcon_9_image_20230807133459.jpeg","infographic":null,"program":[]},{"id":"a32fa9ec-7925-4698-bbc7-a7ed1ad12621","url":"https://ll.thespacedevs.com/2.0.0/launch/a32fa9ec-7925-4698-bbc7-a7ed1ad12621/","launch_library_id":1977,"slug":"delta-iv-heavy-nrol-70","name":"Delta IV Heavy | NROL-70","status":{"id":2,"name":"TBD"},"net":"2024-04-08T16:57:00Z","window_end":"2024-04-08T22:51:00Z","window_start":"2024-04-08T16:57:00Z","inhold":false,"tbdtime":false,"tbddate":false,"probability":null,"holdreason":"","failreason":"","hashtag":null,"launch_service_provider":{"id":124,"url":"https://ll.thespacedevs.com/2.0.0/agencies/124/","name":"United Launch Alliance","type":"Commercial"},"rocket":{"id":2534,"configuration":{"id":21,"launch_library_id":21,"url":"https://ll.thespacedevs.com/2.0.0/config/launcher/21/","name":"Delta IV Heavy","family":"Delta","full_name":"Delta IV Heavy","variant":"Heavy"}},"mission":{"id":6494,"launch_library_id":null,"name":"NROL-70","description":"Classified payload for the NRO.\r\nLast flight of the Delta IV Heavy rocket.","launch_designator":null,"type":"Government/Top Secret","orbit":{"id":25,"name":"Unknown","abbrev":"N/A"}},"pad":{"id":38,"url":"https://ll.thespacedevs.com/2.0.0/pad/38/","agency_id":null,"name":"Space Launch Complex 37B","info_url":null,"wiki_url":"https://en.wikipedia.org/wiki/Cape_Canaveral_Air_Force_Station_Space_Launch_Complex_37","map_url":"https://www.google.com/maps?q=28.5317,-80.56495","latitude":"28.5317","longitude":"-80.56495","location":{"id":12,"url":"https://ll.thespacedevs.com/2.0.0/location/12/","name":"Cape Canaveral, FL, USA","country_code":"USA","map_image":"https://spacelaunchnow-prod-east.nyc3.digitaloceanspaces.com/media/launch_images/location_12_20200803142519.jpg","total_launch_count":942,"total_landing_count":50},"map_image":"https://spacelaunchnow-prod-east.nyc3.digitaloceanspaces.com/media/launch_images/pad_38_20200803143515.jpg","total_launch_count":39},"webcast_live":false,"image":"https://spacelaunchnow-prod-east.nyc3.digitaloceanspaces.com/media/images/slc-37b_image_20240329083424.jpeg","infographic":null,"program":[]},{"id":"1b8e6f37-c703-4e48-b160-470ffe5ecb26","url":"https://ll.thespacedevs.com/2.0.0/launch/1b8e6f37-c703-4e48-b160-470ffe5ecb26/","launch_library_id":1984,"slug":"angara-a5blok-dm-03-vostochny-angara-test-flight","name":"Angara A5/Blok DM-03 | Vostochny Angara Test Flight","status":{"id":2,"name":"TBD"},"net":"2024-04-09T00:00:00Z","window_end":"2024-04-09T00:00:00Z","window_start":"2024-04-09T00:00:00Z","inhold":false,"tbdtime":true,"tbddate":false,"probability":null,"holdreason":"","failreason":"","hashtag":null,"launch_service_provider":{"id":96,"url":"https://ll.thespacedevs.com/2.0.0/agencies/96/","name":"Khrunichev State Research and Production Space Center","type":"Government"},"rocket":{"id":2543,"configuration":{"id":196,"launch_library_id":224,"url":"https://ll.thespacedevs.com/2.0.0/config/launcher/196/","name":"Angara A5/Blok DM-03","family":"Angara","full_name":"Angara A5/Blok DM-03","variant":"A5/DM-03"}},"mission":{"id":6652,"launch_library_id":null,"name":"Vostochny Angara Test Flight","description":"First test launch of the Angara A5 launch vehicle from the Vostochny Cosmodrome. The rocket will carry a mass simulator payload.","launch_designator":null,"type":"Test Flight","orbit":{"id":25,"name":"Unknown","abbrev":"N/A"}},"pad":{"id":108,"url":"https://ll.thespacedevs.com/2.0.0/pad/108/","agency_id":63,"name":"Cosmodrome Site 1A","info_url":null,"wiki_url":"https://en.wikipedia.org/wiki/Vostochny_Cosmodrome","map_url":"https://www.google.com/maps?q=51.884395,128.333932","latitude":"51.884395","longitude":"128.333932","location":{"id":18,"url":"https://ll.thespacedevs.com/2.0.0/location/18/","name":"Vostochny Cosmodrome, Siberia, Russian Federation","country_code":"RUS","map_image":"https://spacelaunchnow-prod-east.nyc3.digitaloceanspaces.com/media/launch_images/location_18_20200803142401.jpg","total_launch_count":16,"total_landing_count":0},"map_image":"https://spacelaunchnow-prod-east.nyc3.digitaloceanspaces.com/media/launch_images/pad_108_20200803143525.jpg","total_launch_count":0},"webcast_live":false,"image":"https://spacelaunchnow-prod-east.nyc3.digitaloceanspaces.com/media/images/angara_a52fper_image_20211227193648.jpg","infographic":null,"program":[]}]}